[{"id":"usr6753","username":"rtaylder0","email":"cbarajaz0@intel.com","profilePicture":"http://dummyimage.com/200x200.png/dddddd/000000","isDeleted":false},
{"id":"usr5454","username":"morridge1","email":"flotte1@bloomberg.com","profilePicture":"http://dummyimage.com/200x200.png/ff4444/ffffff","isDeleted":false},
{"id":"usr8861","username":"dforton2","email":"jconachie2@moonfruit.com","profilePicture":"http://dummyimage.com/200x200.png/ff4444/ffffff","isDeleted":false},
{"id":"usr7941","username":"ddadley3","email":"fklas3@zdnet.com","profilePicture":"http://dummyimage.com/200x200.png/cc0000/ffffff","isDeleted":false},
{"id":"usr2199","username":"rmacardle4","email":"iriccardi4@domainmarket.com","profilePicture":"http://dummyimage.com/200x200.png/ff4444/ffffff","isDeleted":false},
{"id":"usr7158","username":"tpischel5","email":"jcrocken5@illinois.edu","profilePicture":"http://dummyimage.com/200x200.png/dddddd/000000","isDeleted":false},
{"id":"usr0527","username":"whidderley6","email":"dbootyman6@hud.gov","profilePicture":"http://dummyimage.com/200x200.png/cc0000/ffffff","isDeleted":false},
{"id":"usr6518","username":"ocasale7","email":"dcristofanini7@nsw.gov.au","profilePicture":"http://dummyimage.com/200x200.png/5fa2dd/ffffff","isDeleted":false},
{"id":"usr5313","username":"ctruwert8","email":"kgrinsdale8@forbes.com","profilePicture":"http://dummyimage.com/200x200.png/dddddd/000000","isDeleted":false},
{"id":"usr8019","username":"rhansbury9","email":"kseppey9@cbc.ca","profilePicture":"http://dummyimage.com/200x200.png/cc0000/ffffff","isDeleted":false},
{"id":"usr3154","username":"gobina","email":"abalselliea@cnn.com","profilePicture":"http://dummyimage.com/200x200.png/dddddd/000000","isDeleted":false},
{"id":"usr7101","username":"odenkinb","email":"imonnellyb@jimdo.com","profilePicture":"http://dummyimage.com/200x200.png/ff4444/ffffff","isDeleted":false},
{"id":"usr1821","username":"lcurlingc","email":"bbellisc@google.com.hk","profilePicture":"http://dummyimage.com/200x200.png/dddddd/000000","isDeleted":false},
{"id":"usr5733","username":"bpidwelld","email":"pgerried@hatena.ne.jp","profilePicture":"http://dummyimage.com/200x200.png/ff4444/ffffff","isDeleted":false},
{"id":"usr1790","username":"ealbinsone","email":"fgirvane@digg.com","profilePicture":"http://dummyimage.com/200x200.png/dddddd/000000","isDeleted":false},
{"id":"usr5638","username":"cpeytonf","email":"pbeadellf@weibo.com","profilePicture":"http://dummyimage.com/200x200.png/dddddd/000000","isDeleted":false},
{"id":"usr2911","username":"iannettg","email":"dmerfing@techcrunch.com","profilePicture":"http://dummyimage.com/200x200.png/5fa2dd/ffffff","isDeleted":false},
{"id":"usr5013","username":"gcarilloh","email":"pkimeh@examiner.com","profilePicture":"http://dummyimage.com/200x200.png/dddddd/000000","isDeleted":false},
{"id":"usr9904","username":"kscarloni","email":"jstoddi@icio.us","profilePicture":"http://dummyimage.com/200x200.png/dddddd/000000","isDeleted":false},
{"id":"usr6242","username":"kduffellj","email":"arenneyj@ucoz.com","profilePicture":"http://dummyimage.com/200x200.png/dddddd/000000","isDeleted":false}]